10-31 21:24:35.618 4685-4703/com.oliverthor.android.photogallery I/FlickrFetchr: Received JSON: {"photos":{"page":1,"pages":10,"perpage":100,"total":1000,"photo":[{"id":"30069614643","owner":"143207198@N03","secret":"15a567a6be","server":"5479","farm":6,"title":"Basketball Stars Hack Updates October 07, 2016 at 01:15AM","ispublic":1,"isfriend":0,"isfamily":0,"url_s":"https:\/\/farm6.staticflickr.com\/5479\/30069614643_15a567a6be_m.jpg","height_s":"240","width_s":"144"},{"id":"30069615803","owner":"67021618@N00","secret":"376f5c47db","server":"5472","farm":6,"title":"LAW_7036.jpg","ispublic":1,"isfriend":0,"isfamily":0,"url_s":"https:\/\/farm6.staticflickr.com\/5472\/30069615803_376f5c47db_m.jpg","height_s":"160","width_s":"240"},{"id":"30069616553","owner":"142055526@N07","secret":"7f443349ed","server":"5444","farm":6,"title":"Jasa Konveksi Murah www.kaospolo.co call\/WA : 089661001113 \/ 081228577877 melayani pembuatan : - Baju - seragam - kaos promosi - kemeja - tas organizer - pembuatan kancing custom harga murah dan bersaing.  #piquemercerized #piquenonmercerized #mercerized","ispublic":1,"isfriend":0,"isfamily":0,"url_s":"https:\/\/farm6.staticflickr.com\/5444\/30069616553_7f443349ed_m.jpg","height_s":"240","width_s":"240"},{"id":"30069617823","owner":"125844692@N06","secret":"275fac9d0b","server":"5489","farm":6,"title":"Pasig river.,  #HuaweiMate8  #NewTakesChallenge  @huaweimobile  #Happy1111 #HuaweiP9","ispublic":1,"isfriend":0,"isfamily":0,"url_s":"https:\/\/farm6.staticflickr.com\/5489\/30069617823_275fac9d0b_m.jpg","height_s":"180","width_s":"240"},{"id":"30069619383","owner":"127015926@N04","secret":"057a7daf6c","server":"5716","farm":6,"title":"New pic! @@nylongirl_liv DM or email us your best Stockings & lingerie pics for a shoutout \/ Feature RT! TICKET: Get your Add Request FASTTRACKED *Link In Bio* #picoftheday #stockings #Glamour #pinup #retro #Models #highheels #heels #hosiery #nylontoes #l","ispublic":1,"isfriend":0,"isfamily":0,"url_s":"https:\/\/farm6.staticflickr.com\/5716\/30069619383_057a7daf6c_m.jpg","height_s":"240","width_s":"240"},{"id":"30069622053","owner":"143924134@N07","secret":"c7703d497e","server":"5747","farm":6,"title":"\u0130spirde Atv Arac\u0131 Yanarak Kullan\u0131lamaz Hale Geldi","ispublic":1,"isfriend":0,"isfamily":0,"url_s":"https:\/\/farm6.staticflickr.com\/5747\/30069622053_c7703d497e_m.jpg","height_s":"135","width_s":"240"},{"id":"30069622253","owner":"9216856@N07","secret":"8b2b286215","server":"5622","farm":6,"title":"20161101_095041","ispublic":1,"isfriend":0,"isfamily":0,"url_s":"https:\/\/farm6.staticflickr.com\/5622\/30069622253_8b2b286215_m.jpg","height_s":"135","width_s":"240"},{"id":"30069622783","owner":"89169354@N02","secret":"c1555173c3","server":"5574","farm":6,"title":"N\u00edver da Alice - 1 ano - Out.2016 - Foto- -284.jpg","ispublic":1,"isfriend":0,"isfamily":0,"url_s":"https:\/\/farm6.staticflickr.com\/5574\/30069622783_c1555173c3_m.jpg","height_s":"160","width_s":"240"},{"id":"30069623763","owner":"49106567@N04","secret":"2a3838468a","server":"5814","farm":6,"title":"DSC02825.jpg","ispublic":1,"isfriend":0,"isfamily":0,"url_s":"https:\/\/farm6.staticflickr.com\/5814\/30069623763_2a3838468a_m.jpg","height_s":"160","width_s":"240"},{"id":"30069624423","owner":"57995769@N04","secret":"73ac8fd20e","server":"5785","farm":6,"title":"IMG_2578","ispublic":1,"isfriend":0,"isfamily":0,"url_s":"https:\/\/farm6.staticflickr.com\/5785\/30069624423_73ac8fd20e_m.jpg","height_s":"160","width_s":"240"},{"id":"30069625133","owner":"27394111@N04","secret":"b92a935038","server":"5450","farm":6,"title":"MuleX - 2016","ispublic":1,"isfriend":0,"isfamily":0,"url_s":"https:\/\/farm6.staticflickr.com\/5450\/30069625133_b92a935038_m.jpg","height_s":"160","width_s":"240"},{"id":"30069625763","owner":"40797482@N04","secret":"905132cb86","server":"5566","farm":6,"title":"This was never about the money, this was about us against the system. That system that kills the human spirit. We stand for something. We are here to show those guys that are inching their way on the freeways in their metal coffins that the human sprit i

